{
  "project_info": {
    "project_number": "371221570361",
    "firebase_url": "https://finalexam-2f1b0-default-rtdb.firebaseio.com",
    "project_id": "finalexam-2f1b0",
    "storage_bucket": "finalexam-2f1b0.appspot.com"
  },
  "client": [
    {
      "client_info": {
        "mobilesdk_app_id": "1:371221570361:android:561da62c31b677c467bee8",
        "android_client_info": {
          "package_name": "com.example.finalexam"
        }
      },
      "oauth_client": [
        {
          "client_id": "371221570361-sjjjfp04mqbgqc893qfgsoekq5f0te7f.apps.googleusercontent.com",
          "client_type": 3
        }
      ],
      "api_key": [
        {
          "current_key": "AIzaSyAiZN2CESMnearb_Hdc9Yc-2XKLlwsCZlQ"
        }
      ],
      "services": {
        "appinvite_service": {
          "other_platform_oauth_client": [
            {
              "client_id": "371221570361-sjjjfp04mqbgqc893qfgsoekq5f0te7f.apps.googleusercontent.com",
              "client_type": 3
            }
          ]
        }
      }
    },
    {
      "client_info": {
        "mobilesdk_app_id": "1:371221570361:android:174a23f2362ed4d367bee8",
        "android_client_info": {
          "package_name": "com.example.myapplication12"
        }
      },
      "oauth_client": [
        {
          "client_id": "371221570361-sjjjfp04mqbgqc893qfgsoekq5f0te7f.apps.googleusercontent.com",
          "client_type": 3
        }
      ],
      "api_key": [
        {
          "current_key": "AIzaSyAiZN2CESMnearb_Hdc9Yc-2XKLlwsCZlQ"
        }
      ],
      "services": {
        "appinvite_service": {
          "other_platform_oauth_client": [
            {
              "client_id": "371221570361-sjjjfp04mqbgqc893qfgsoekq5f0te7f.apps.googleusercontent.com",
              "client_type": 3
            }
          ]
        }
      }
    }
  ],
  "configuration_version": "1"
}